Econometría
…
lambda <- trans_bc$x # Extraemos los valore de lambda
lik <- trans_bc$y # Extraemos los valores de la versolimilitud para SC_Res
b_c <- bind_cols(lambda, lik) %>% 
  set_names("lambda", "lik")

## New names:
## * NA -> ...1
## * NA -> ...2

b_c %>% 
  arrange(desc(lik)) %>% 
  print(n = 10)

## # A tibble: 100 x 2
##    lambda   lik
##     <dbl> <dbl>
##  1  0.990 -212.
##  2  0.949 -212.
##  3  1.03  -212.
##  4  0.909 -214.
##  5  1.07  -214.
##  6  0.869 -217.
##  7  1.11  -217.
##  8  0.828 -220.
##  9  1.15  -221.
## 10  0.788 -225.
## # ... with 90 more rows
…
